%YAML 1.1
%TAG !u! tag:unity3d.com,2011:
--- !u!114 &11400000
MonoBehaviour:
  m_ObjectHideFlags: 0
  m_PrefabParentObject: {fileID: 0}
  m_PrefabInternal: {fileID: 0}
  m_GameObject: {fileID: 0}
  m_Enabled: 1
  m_EditorHideFlags: 0
  m_Script: {fileID: 11500000, guid: 41cb500cf0f58e74f9a52a8af931edde, type: 3}
  m_Name: -tk2d
  m_EditorClassIdentifier: 
  version: 4
  spriteAnimationIndex: []
  fontIndex: []
  spriteCollectionIndex:
  - name: Boats
    spriteCollectionGUID: 522a30ee69c924a96b31d35acf179bca
    spriteCollectionDataGUID: 536112f1d0673451eb9e46812308e1cf
    spriteNames:
    - ark
    - muscleman
    - water
    - sheep
    - moon
    - swastika
    - ark_2
    - buttonX
    - buttonA
    - buttonY
    - buttonB
    spriteTextureGUIDs:
    - 77f74987ff52c47d1bba7b5218defd3c
    - ea9ceb6b6f66a41679be3d4f470c925b
    - 4d1cae38a3a794df0b5d39bed9380549
    - 164f74dc609da499b8980933ce4c7744
    - be49b61fcba82414fb1f67d3cfcb51f4
    - 5621596876cfb4b57807084925ab271b
    - 7a6ea9f29d8014d919f210b2888fcb89
    - 8d633f0f50bd840a3a465f8b385d93e1
    - c0b6390fe326547baa72e8af68734484
    - 5220db0accd4943d7b63e4732b99d2e7
    - 89f03ce481e8f4d028f0f6af46543a76
    spriteTextureTimeStamps:
    - 1484950053
    - 1484952457
    - 1484958532
    - 1484960747
    - 1484962338
    - 1484962380
    - 1484962691
    - 1485018858
    - 1485018876
    - 1485018865
    - 1485018870
    managedSpriteCollection: 0
    loadable: 0
    assetName: 
    version: 3
